…
## Last one for the road

In a very nice case study, Bob Carpenter shows how to estimate predator-prey population dynamics using Stan, check out [here](https://mc-stan.org/users/documentation/case-studies/lotka-volterra-predator-prey.html). Let's try and reproduce his results. 

Let's get the data first:

```r
library(tidyverse)
dat <- read_csv('https://raw.githubusercontent.com/stan-dev/example-models/master/knitr/lotka-volterra/hudson-bay-lynx-hare.csv', comment = '#')
dat
```

```
## # A tibble: 21 x 3
##     Year  Lynx  Hare
##    <dbl> <dbl> <dbl>
##  1  1900   4    30  
##  2  1901   6.1  47.2
##  3  1902   9.8  70.2
##  4  1903  35.2  77.4
##  5  1904  59.4  36.3
##  6  1905  41.7  20.6
##  7  1906  19    18.1
##  8  1907  13    21.4
##  9  1908   8.3  22  
## 10  1909   9.1  25.4
## # … with 11 more rows
```
…
